^C:\USERS\OLGA\SOURCE\REPOS\CALCULATOR\CALCULATOR\DEBUG\CALCULATOR.OBJ|C:\USERS\OLGA\SOURCE\REPOS\CALCULATOR\CALCULATOR\DEBUG\CALCULATOR.RES|C:\USERS\OLGA\SOURCE\REPOS\CALCULATOR\CALCULATOR\DEBUG\CALCULATORDLG.OBJ|C:\USERS\OLGA\SOURCE\REPOS\CALCULATOR\CALCULATOR\DEBUG\STDAFX.OBJ
D:\PRACA\CPP_LIBRARIES\CPPRESTSDK\VCPKG\INSTALLED\X86-WINDOWS\DEBUG\LIB\BOOST_ATOMIC-VC140-MT-GD-1_66.LIB
D:\PRACA\CPP_LIBRARIES\CPPRESTSDK\VCPKG\INSTALLED\X86-WINDOWS\DEBUG\LIB\BOOST_CHRONO-VC140-MT-GD-1_66.LIB
D:\PRACA\CPP_LIBRARIES\CPPRESTSDK\VCPKG\INSTALLED\X86-WINDOWS\DEBUG\LIB\BOOST_CONTAINER-VC140-MT-GD-1_66.LIB
D:\PRACA\CPP_LIBRARIES\CPPRESTSDK\VCPKG\INSTALLED\X86-WINDOWS\DEBUG\LIB\BOOST_CONTEXT-VC140-MT-GD-1_66.LIB
D:\PRACA\CPP_LIBRARIES\CPPRESTSDK\VCPKG\INSTALLED\X86-WINDOWS\DEBUG\LIB\BOOST_COROUTINE-VC140-MT-GD-1_66.LIB
D:\PRACA\CPP_LIBRARIES\CPPRESTSDK\VCPKG\INSTALLED\X86-WINDOWS\DEBUG\LIB\BOOST_DATE_TIME-VC140-MT-GD-1_66.LIB
D:\PRACA\CPP_LIBRARIES\CPPRESTSDK\VCPKG\INSTALLED\X86-WINDOWS\DEBUG\LIB\BOOST_EXCEPTION-VC140-MT-GD-1_66.LIB
D:\PRACA\CPP_LIBRARIES\CPPRESTSDK\VCPKG\INSTALLED\X86-WINDOWS\DEBUG\LIB\BOOST_MATH_C99-VC140-MT-GD-1_66.LIB
D:\PRACA\CPP_LIBRARIES\CPPRESTSDK\VCPKG\INSTALLED\X86-WINDOWS\DEBUG\LIB\BOOST_MATH_C99F-VC140-MT-GD-1_66.LIB
D:\PRACA\CPP_LIBRARIES\CPPRESTSDK\VCPKG\INSTALLED\X86-WINDOWS\DEBUG\LIB\BOOST_MATH_C99L-VC140-MT-GD-1_66.LIB
D:\PRACA\CPP_LIBRARIES\CPPRESTSDK\VCPKG\INSTALLED\X86-WINDOWS\DEBUG\LIB\BOOST_MATH_TR1-VC140-MT-GD-1_66.LIB
D:\PRACA\CPP_LIBRARIES\CPPRESTSDK\VCPKG\INSTALLED\X86-WINDOWS\DEBUG\LIB\BOOST_MATH_TR1F-VC140-MT-GD-1_66.LIB
D:\PRACA\CPP_LIBRARIES\CPPRESTSDK\VCPKG\INSTALLED\X86-WINDOWS\DEBUG\LIB\BOOST_MATH_TR1L-VC140-MT-GD-1_66.LIB
D:\PRACA\CPP_LIBRARIES\CPPRESTSDK\VCPKG\INSTALLED\X86-WINDOWS\DEBUG\LIB\BOOST_REGEX-VC140-MT-GD-1_66.LIB
D:\PRACA\CPP_LIBRARIES\CPPRESTSDK\VCPKG\INSTALLED\X86-WINDOWS\DEBUG\LIB\BOOST_SYSTEM-VC140-MT-GD-1_66.LIB
D:\PRACA\CPP_LIBRARIES\CPPRESTSDK\VCPKG\INSTALLED\X86-WINDOWS\DEBUG\LIB\BOOST_THREAD-VC140-MT-GD-1_66.LIB
D:\PRACA\CPP_LIBRARIES\CPPRESTSDK\VCPKG\INSTALLED\X86-WINDOWS\DEBUG\LIB\CPPREST_2_10.LIB
D:\PRACA\CPP_LIBRARIES\CPPRESTSDK\VCPKG\INSTALLED\X86-WINDOWS\DEBUG\LIB\LIBCURL.LIB
D:\PRACA\CPP_LIBRARIES\CPPRESTSDK\VCPKG\INSTALLED\X86-WINDOWS\DEBUG\LIB\LIBEAY32.LIB
D:\PRACA\CPP_LIBRARIES\CPPRESTSDK\VCPKG\INSTALLED\X86-WINDOWS\DEBUG\LIB\LIBSSH2.LIB
D:\PRACA\CPP_LIBRARIES\CPPRESTSDK\VCPKG\INSTALLED\X86-WINDOWS\DEBUG\LIB\SDL2D.LIB
D:\PRACA\CPP_LIBRARIES\CPPRESTSDK\VCPKG\INSTALLED\X86-WINDOWS\DEBUG\LIB\SSLEAY32.LIB
D:\PRACA\CPP_LIBRARIES\CPPRESTSDK\VCPKG\INSTALLED\X86-WINDOWS\DEBUG\LIB\ZLIBD.LIB
C:\USERS\OLGA\SOURCE\REPOS\CALCULATOR\CALCULATOR\DEBUG\CALCULATOR.RES
C:\USERS\OLGA\SOURCE\REPOS\CALCULATOR\CALCULATOR\DEBUG\CALCULATOR.OBJ
C:\USERS\OLGA\SOURCE\REPOS\CALCULATOR\CALCULATOR\DEBUG\CALCULATORDLG.OBJ
C:\USERS\OLGA\SOURCE\REPOS\CALCULATOR\CALCULATOR\DEBUG\STDAFX.OBJ
C:\WINDOWS\SYSTEM32\TZRES.DLL
C:\WINDOWS\GLOBALIZATION\SORTING\SORTDEFAULT.NLS
C:\PROGRAM FILES (X86)\MICROSOFT VISUAL STUDIO\2017\COMMUNITY\VC\TOOLS\MSVC\14.14.26428\INCLUDE\MANIFEST\DPIAWARE.MANIFEST
C:\PROGRAM FILES (X86)\MICROSOFT VISUAL STUDIO\2017\COMMUNITY\VC\TOOLS\MSVC\14.14.26428\ATLMFC\LIB\X86\MFC140UD.LIB
C:\PROGRAM FILES (X86)\MICROSOFT VISUAL STUDIO\2017\COMMUNITY\VC\TOOLS\MSVC\14.14.26428\ATLMFC\LIB\X86\MFCS140UD.LIB
C:\PROGRAM FILES (X86)\MICROSOFT VISUAL STUDIO\2017\COMMUNITY\VC\TOOLS\MSVC\14.14.26428\LIB\X86\MSVCRTD.LIB
C:\PROGRAM FILES (X86)\WINDOWS KITS\10\LIB\10.0.17134.0\UM\X86\KERNEL32.LIB
C:\PROGRAM FILES (X86)\WINDOWS KITS\10\LIB\10.0.17134.0\UM\X86\USER32.LIB
C:\PROGRAM FILES (X86)\WINDOWS KITS\10\LIB\10.0.17134.0\UM\X86\GDI32.LIB
C:\PROGRAM FILES (X86)\WINDOWS KITS\10\LIB\10.0.17134.0\UM\X86\MSIMG32.LIB
C:\PROGRAM FILES (X86)\WINDOWS KITS\10\LIB\10.0.17134.0\UM\X86\COMDLG32.LIB
C:\PROGRAM FILES (X86)\WINDOWS KITS\10\LIB\10.0.17134.0\UM\X86\WINSPOOL.LIB
C:\PROGRAM FILES (X86)\WINDOWS KITS\10\LIB\10.0.17134.0\UM\X86\ADVAPI32.LIB
C:\PROGRAM FILES (X86)\WINDOWS KITS\10\LIB\10.0.17134.0\UM\X86\SHELL32.LIB
C:\PROGRAM FILES (X86)\WINDOWS KITS\10\LIB\10.0.17134.0\UM\X86\COMCTL32.LIB
C:\PROGRAM FILES (X86)\WINDOWS KITS\10\LIB\10.0.17134.0\UM\X86\SHLWAPI.LIB
C:\PROGRAM FILES (X86)\WINDOWS KITS\10\LIB\10.0.17134.0\UM\X86\UXTHEME.LIB
C:\PROGRAM FILES (X86)\WINDOWS KITS\10\LIB\10.0.17134.0\UM\X86\WINDOWSCODECS.LIB
C:\PROGRAM FILES (X86)\WINDOWS KITS\10\LIB\10.0.17134.0\UM\X86\UUID.LIB
C:\PROGRAM FILES (X86)\MICROSOFT VISUAL STUDIO\2017\COMMUNITY\VC\TOOLS\MSVC\14.14.26428\ATLMFC\LIB\X86\ATLS.LIB
C:\PROGRAM FILES (X86)\WINDOWS KITS\10\LIB\10.0.17134.0\UM\X86\OLE32.LIB
C:\PROGRAM FILES (X86)\WINDOWS KITS\10\LIB\10.0.17134.0\UM\X86\OLEAUT32.LIB
C:\PROGRAM FILES (X86)\WINDOWS KITS\10\LIB\10.0.17134.0\UM\X86\OLEDLG.LIB
C:\PROGRAM FILES (X86)\WINDOWS KITS\10\LIB\10.0.17134.0\UM\X86\URLMON.LIB
C:\PROGRAM FILES (X86)\WINDOWS KITS\10\LIB\10.0.17134.0\UM\X86\GDIPLUS.LIB
C:\PROGRAM FILES (X86)\MICROSOFT VISUAL STUDIO\2017\COMMUNITY\VC\TOOLS\MSVC\14.14.26428\LIB\X86\COMSUPPWD.LIB
C:\PROGRAM FILES (X86)\MICROSOFT VISUAL STUDIO\2017\COMMUNITY\VC\TOOLS\MSVC\14.14.26428\LIB\X86\OLDNAMES.LIB
C:\PROGRAM FILES (X86)\WINDOWS KITS\10\LIB\10.0.17134.0\UM\X86\WININET.LIB
C:\PROGRAM FILES (X86)\WINDOWS KITS\10\LIB\10.0.17134.0\UM\X86\WS2_32.LIB
C:\PROGRAM FILES (X86)\WINDOWS KITS\10\LIB\10.0.17134.0\UM\X86\MSWSOCK.LIB
C:\PROGRAM FILES (X86)\MICROSOFT VISUAL STUDIO\2017\COMMUNITY\VC\TOOLS\MSVC\14.14.26428\LIB\X86\VCRUNTIMED.LIB
C:\PROGRAM FILES (X86)\WINDOWS KITS\10\LIB\10.0.17134.0\UCRT\X86\UCRTD.LIB
C:\PROGRAM FILES (X86)\WINDOWS KITS\10\BIN\10.0.17134.0\X86\MT.EXE
C:\PROGRAM FILES (X86)\WINDOWS KITS\10\BIN\10.0.17134.0\X86\RC.EXE
C:\PROGRAM FILES (X86)\MICROSOFT VISUAL STUDIO\2017\COMMUNITY\VC\TOOLS\MSVC\14.14.26428\BIN\HOSTX86\X86\CVTRES.EXE
C:\PROGRAM FILES (X86)\MICROSOFT VISUAL STUDIO\2017\COMMUNITY\VC\TOOLS\MSVC\14.14.26428\BIN\HOSTX86\X86\VCTIP.EXE
C:\WINDOWS\SYSTEM32\RSAENH.DLL
