^C:\USERS\OLGA\SOURCE\REPOS\CALCULATOR\CALCULATOR\DEBUG\CALCULATOR.OBJ|C:\USERS\OLGA\SOURCE\REPOS\CALCULATOR\CALCULATOR\DEBUG\CALCULATOR.RES|C:\USERS\OLGA\SOURCE\REPOS\CALCULATOR\CALCULATOR\DEBUG\CALCULATORDLG.OBJ|C:\USERS\OLGA\SOURCE\REPOS\CALCULATOR\CALCULATOR\DEBUG\STDAFX.OBJ
C:\USERS\OLGA\SOURCE\REPOS\CALCULATOR\DEBUG\CALCULATOR.EXE
C:\USERS\OLGA\SOURCE\REPOS\CALCULATOR\DEBUG\CALCULATOR.ILK
C:\USERS\OLGA\SOURCE\REPOS\CALCULATOR\DEBUG\CALCULATOR.PDB
